<svg xmlns="http://www.w3.org/2000/svg" width="16.132" height="17.374" viewBox="0 0 16.132 17.374">
  <path id="house-door" d="M10.005,1.181a.62.62,0,0,0-.879,0L1.681,8.627a.62.62,0,0,0-.181.439v8.687a.62.62,0,0,0,.62.62H7.7a.62.62,0,0,0,.62-.62V12.789h2.482v4.964a.62.62,0,0,0,.62.62h5.584a.62.62,0,0,0,.62-.62V9.066a.62.62,0,0,0-.181-.439l-1.68-1.679V2.862a.62.62,0,0,0-.62-.62H13.909a.62.62,0,0,0-.62.62v1.6ZM2.741,17.132V9.323L9.566,2.5l6.825,6.825v7.809H12.048V12.169a.62.62,0,0,0-.62-.62H7.7a.62.62,0,0,0-.62.62v4.964Z" transform="translate(-1.5 -0.999)" fill="#fff"/>
</svg>
